X:1
T:Genom to music
K:C
M:none
L:1/8
"Asp"[Bdg]|"Leu"[A,CE]|"Term"[C,Cc]|"Leu"[A,CE]|"Ala"[DFB]|"Ala"[DFB]|"Val"[B,DF]|"Asn"[Acf]|"Lys"[cea]|"Gly"[DFA]|"Glu"[GBd]|"Thr"[EGB]|"Ala"[DFB]|"Ser"[GBe]|"Ser"[GBe]|"Gln"[FAc]|"Arg"[Ace]|"Thr"[EGB]|"Met"[D,F,A,]|"Arg"[Ace]|"Term"[C,Cc]|"Thr"[EGB]|"Pro"[E,G,B,]|"Lys"[cea]|"Glu"[GBd]|"Ser"[GBe]|"Arg"[Ace]|"Thr"[EGB]|"Phe"[B,DG]|"Ile"[CEA]|"Ile"[CEA]|"Trp"[C,E,G,]|"Asp"[Bdg]|"Thr"[EGB]|"Leu"[A,CE]|"Asp"[Bdg]|"Ala"[DFB]|"Tyr"[G,B,D]|"Gly"[DFA]|"Val"[B,DF]|"Thr"[EGB]|"Ile"[CEA]|"Leu"[A,CE]|"His"[F,A,C]|"Ser"[GBe]|"Gly"[DFA]|"Glu"[GBd]|"Asp"[Bdg]|"Gly"[DFA]|"Ser"[GBe]|"Gln"[FAc]|"Asn"[Acf]|"Lys"[cea]|"Gln"[FAc]|"Leu"[A,CE]|"Ser"[GBe]|"Ala"[DFB]|"Val"[B,DF]|"Term"[C,Cc]|"Asp"[Bdg]|"Ser"[GBe]|"Ser"[GBe]|"Asp"[Bdg]|"Ser"[GBe]|"Pro"[E,G,B,]|"Asn"[Acf]|"Trp"[C,E,G,]|"Met"[D,F,A,]|"His"[F,A,C]|"Ser"[GBe]|"Phe"[B,DG]|"Gly"[DFA]|"Ile"[CEA]|"Phe"[B,DG]|"Pro"[E,G,B,]|"Thr"[EGB]|"Term"[C,Cc]|"Ser"[GBe]|"Tyr"[G,B,D]|"Gly"[DFA]|"Trp"[C,E,G,]|"Gly"[DFA]|"Asp"[Bdg]|"Term"[C,Cc]|"Lys"[cea]|"Ser"[GBe]|"Ala"[DFB]|"Ile"[CEA]|"Leu"[A,CE]|"Thr"[EGB]|"Ser"[GBe]|"Ala"[DFB]|"Trp"[C,E,G,]|"Asp"[Bdg]|"Cys"[CEG]|"Met"[D,F,A,]|"Ser"[GBe]|"Ser"[GBe]|"Cys"[CEG]|"Asp"[Bdg]|"Gly"[DFA]|"Ser"[GBe]|"Pro"[E,G,B,]|"Val"[B,DF]|"Term"[C,Cc]|"His"[F,A,C]|"Glu"[GBd]|"Met"[D,F,A,]|"Asn"[Acf]|"Ser"[GBe]|"Pro"[E,G,B,]|"Thr"[EGB]|"Ala"[DFB]|"Val"[B,DF]|"Ser"[GBe]|"Ser"[GBe]|"His"[F,A,C]|"Arg"[Ace]|"Phe"[B,DG]|"Phe"[B,DG]|"Ser"[GBe]|"Val"[B,DF]|"Ser"[GBe]|"Val"[B,DF]|"Ser"[GBe]|"Asp"[Bdg]|"Arg"[Ace]|"Val"[B,DF]|"Ile"[CEA]|"Leu"[A,CE]|"Lys"[cea]|"His"[F,A,C]|"Ser"[GBe]|"Arg"[Ace]|"Term"[C,Cc]|"Gly"[DFA]|"Lys"[cea]|"Pro"[E,G,B,]|"His"[F,A,C]|"Term"[C,Cc]|"Pro"[E,G,B,]|"Tyr"[G,B,D]|"Gly"[DFA]|"Gly"[DFA]|"Lys"[cea]|"Val"[B,DF]|"Pro"[E,G,B,]|"Asp"[Bdg]|"Ser"[GBe]|"Glu"[GBd]|"Tyr"[G,B,D]|"Ala"[DFB]|"Tyr"[G,B,D]|"Ile"[CEA]|"Thr"[EGB]|"Glu"[GBd]|"Leu"[A,CE]|"Ile"[CEA]|"Lys"[cea]|"Arg"[Ace]|"Leu"[A,CE]|"Pro"[E,G,B,]|"Leu"[A,CE]|"Ser"[GBe]|"Term"[C,Cc]|"Arg"[Ace]|"Ser"[GBe]|"Trp"[C,E,G,]|"Asn"[Acf]|"Pro"[E,G,B,]|"Thr"[EGB]|"His"[F,A,C]|"Term"[C,Cc]|"Phe"[B,DG]|"Gly"[DFA]|"Ser"[GBe]|"Leu"[A,CE]|"Gln"[FAc]|"Arg"[Ace]|"Gly"[DFA]|"Cys"[CEG]|"Leu"[A,CE]|"Phe"[B,DG]|"Val"[B,DF]|"Leu"[A,CE]|"Cys"[CEG]|"Val"[B,DF]|"Gly"[DFA]|"Arg"[Ace]|"Pro"[E,G,B,]|"Leu"[A,CE]|"Term"[C,Cc]|"Cys"[CEG]|"Gln"[FAc]|"His"[F,A,C]|"Arg"[Ace]|"Pro"[E,G,B,]|"Arg"[Ace]|"Ile"[CEA]|"Arg"[Ace]|"Term"[C,Cc]|"Leu"[A,CE]|"Arg"[Ace]|"Met"[D,F,A,]|"Met"[D,F,A,]|"Arg"[Ace]|"Tyr"[G,B,D]|"Thr"[EGB]|"Val"[B,DF]|"Asp"[Bdg]|"Gly"[DFA]|"Asp"[Bdg]|"Tyr"[G,B,D]|"Thr"[EGB]|"Ser"[GBe]|"Ser"[GBe]|"Leu"[A,CE]|"Thr"[EGB]|"Pro"[E,G,B,]|"Ala"[DFB]|"Gln"[FAc]|"His"[F,A,C]|"Arg"[Ace]|"Tyr"[G,B,D]|"Asn"[Acf]|"Arg"[Ace]|"Arg"[Ace]|"Leu"[A,CE]|"Ile"[CEA]|"His"[F,A,C]|"Pro"[E,G,B,]|"Thr"[EGB]|"Ser"[GBe]|"Pro"[E,G,B,]|"Ser"[GBe]|"Ser"[GBe]|"Leu"[A,CE]|"Cys"[CEG]|"Asp"[Bdg]|"Lys"[cea]|"Glu"[GBd]|"Thr"[EGB]|"Gly"[DFA]|"Thr"[EGB]|"Cys"[CEG]|"Gly"[DFA]|"Arg"[Ace]|"Pro"[E,G,B,]|"Cys"[CEG]|"Arg"[Ace]|"Lys"[cea]|"Cys"[CEG]|"His"[F,A,C]|"Cys"[CEG]|"Tyr"[G,B,D]|"Val"[B,DF]|"Asn"[Acf]|"Asn"[Acf]|"Glu"[GBd]|"Leu"[A,CE]|"His"[F,A,C]|"Gly"[DFA]|"Gly"[DFA]|"Val"[B,DF]|"Pro"[E,G,B,]|"Pro"[E,G,B,]|"Term"[C,Cc]|"Gly"[DFA]|"Tyr"[G,B,D]|"Leu"[A,CE]|"Tyr"[G,B,D]|"Ser"[GBe]|"Ser"[GBe]|"Leu"[A,CE]|"Arg"[Ace]|"Term"[C,Cc]|"Ile"[CEA]|"Met"[D,F,A,]|"Ala"[DFB]|"Leu"[A,CE]|"Cys"[CEG]|"Pro"[E,G,B,]|"Ile"[CEA]|"Ser"[GBe]|"Thr"[EGB]|"Val"[B,DF]|"Gln"[FAc]|"Ser"[GBe]|"Phe"[B,DG]|"Val"[B,DF]|"Arg"[Ace]|"Arg"[Ace]|"Leu"[A,CE]|"Phe"[B,DG]|"Ser"[GBe]|"Ile"[CEA]|"Ser"[GBe]|"Pro"[E,G,B,]|"Gly"[DFA]|"Val"[B,DF]|"Met"[D,F,A,]|"Val"[B,DF]|"Term"[C,Cc]|"Gly"[DFA]|"Val"[B,DF]|"His"[F,A,C]|"Glu"[GBd]|"Cys"[CEG]|"Gly"[DFA]|"Val"[B,DF]|"Ile"[CEA]|"Asn"[Acf]|"Arg"[Ace]|"Val"[B,DF]|"Gly"[DFA]|"Arg"[Ace]|"Ala"[DFB]|"Pro"[E,G,B,]|"Term"[C,Cc]|"Asn"[Acf]|"His"[F,A,C]|"Gly"[DFA]|"Glu"[GBd]|"His"[F,A,C]|"Gln"[FAc]|"Ala"[DFB]|"Met"[D,F,A,]|"Val"[B,DF]|"Pro"[E,G,B,]|"Arg"[Ace]|"Ser"[GBe]|"Lys"[cea]|"Val"[B,DF]|"Pro"[E,G,B,]|"Val"[B,DF]|"Leu"[A,CE]|"Leu"[A,CE]|"Leu"[A,CE]|"Trp"[C,E,G,]|"Lys"[cea]|"Thr"[EGB]|"Lys"[cea]|"Tyr"[G,B,D]|"Arg"[Ace]|"Term"[C,Cc]|"Glu"[GBd]|"Leu"[A,CE]|"Ser"[GBe]|"Gly"[DFA]|"Tyr"[G,B,D]|"Ala"[DFB]|"Lys"[cea]|"Ala"[DFB]|"Tyr"[G,B,D]|"Thr"[EGB]|"Leu"[A,CE]|"Arg"[Ace]|"Glu"[GBd]|"Leu"[A,CE]|"Pro"[E,G,B,]|"Leu"[A,CE]|"Ser"[GBe]|"Term"[C,Cc]|"Arg"[Ace]|"Tyr"[G,B,D]|"Ser"[GBe]|"Ser"[GBe]|"Term"[C,Cc]|"Arg"[Ace]|"Thr"[EGB]|"Arg"[Ace]|"Asn"[Acf]|"Gly"[DFA]|"Gly"[DFA]|"Asn"[Acf]|"Ser"[GBe]|"Gly"[DFA]|"Met"[D,F,A,]|"Ser"[GBe]|"Arg"[Ace]|"Cys"[CEG]|"Tyr"[G,B,D]|"Ala"[DFB]|"Leu"[A,CE]|"Ile"[CEA]|"Arg"[Ace]|"Cys"[CEG]|"His"[F,A,C]|"Val"[B,DF]|"Term"[C,Cc]|"Leu"[A,CE]|"Gly"[DFA]|"Tyr"[G,B,D]|"Glu"[GBd]|"Asn"[Acf]|"Pro"[E,G,B,]|"Ser"[GBe]|"Thr"[EGB]|"Phe"[B,DG]|"Pro"[E,G,B,]|"Arg"[Ace]|"Cys"[CEG]|"Leu"[A,CE]|"Cys"[CEG]|"Term"[C,Cc]|"Gly"[DFA]|"Ile"[CEA]|"Thr"[EGB]|"Arg"[Ace]|"Gln"[FAc]|"Glu"[GBd]|"Val"[B,DF]|"Val"[B,DF]|"Leu"[A,CE]|"Pro"[E,G,B,]|"Ala"[DFB]|"Asp"[Bdg]|"Ile"[CEA]|"Glu"[GBd]|"Arg"[Ace]|"Tyr"[G,B,D]|"Glu"[GBd]|"Ser"[GBe]|"Ser"[GBe]|"Pro"[E,G,B,]|"Thr"[EGB]|"Val"[B,DF]|"Arg"[Ace]|"Met"[D,F,A,]|"Lys"[cea]|"Gln"[FAc]|"Glu"[GBd]|"Ile"[CEA]|"Leu"[A,CE]|"Tyr"[G,B,D]|"Tyr"[G,B,D]|"Phe"[B,DG]|"Arg"[Ace]|"Leu"[A,CE]|"Leu"[A,CE]|"Val"[B,DF]|"Val"[B,DF]|"Leu"[A,CE]|"Tyr"[G,B,D]|"Ala"[DFB]|"Ala"[DFB]|"Cys"[CEG]|"Arg"[Ace]|"Gly"[DFA]|"Asp"[Bdg]|"Term"[C,Cc]|"Ala"[DFB]|"Pro"[E,G,B,]|"Arg"[Ace]|"Term"[C,Cc]|"Arg"[Ace]|"Lys"[cea]|"Arg"[Ace]|"Arg"[Ace]|"Gly"[DFA]|"Leu"[A,CE]|"Term"[C,Cc]|"Thr"[EGB]|"Leu"[A,CE]|"Val"[B,DF]|"His"[F,A,C]|"Leu"[A,CE]|"Trp"[C,E,G,]|"Asp"[Bdg]|"Val"[B,DF]|"Thr"[EGB]|"Leu"[A,CE]|"Ile"[CEA]|"Ser"[GBe]|"Ala"[DFB]|"Cys"[CEG]|"Gly"[DFA]|"Ile"[CEA]|"Gln"[FAc]|"Val"[B,DF]|"Arg"[Ace]|"Leu"[A,CE]|"Tyr"[G,B,D]|"Ser"[GBe]|"Leu"[A,CE]|"Asn"[Acf]|"Thr"[EGB]|"Met"[D,F,A,]|"Lys"[cea]|"Leu"[A,CE]|"Ser"[GBe]|"Leu"[A,CE]|"Arg"[Ace]|"Leu"[A,CE]|"Ser"[GBe]|"Ser"[GBe]|"Leu"[A,CE]|"Glu"[GBd]|"Ser"[GBe]|"Gln"[FAc]|"Gln"[FAc]|"Ile"[CEA]|"Ala"[DFB]|"Tyr"[G,B,D]|"Thr"[EGB]|"Asp"[Bdg]|"Gly"[DFA]|"Lys"[cea]|"Arg"[Ace]|"Arg"[Ace]|"Gly"[DFA]|"Ala"[DFB]|